<?xml version="1.0" encoding="UTF-8" standalone="no"?>
<!-- Created with Inkscape (http://www.inkscape.org/) -->

<svg
   xmlns:dc="http://purl.org/dc/elements/1.1/"
   xmlns:cc="http://creativecommons.org/ns#"
   xmlns:rdf="http://www.w3.org/1999/02/22-rdf-syntax-ns#"
   xmlns:svg="http://www.w3.org/2000/svg"
   xmlns="http://www.w3.org/2000/svg"
   xmlns:sodipodi="http://sodipodi.sourceforge.net/DTD/sodipodi-0.dtd"
   xmlns:inkscape="http://www.inkscape.org/namespaces/inkscape"
   width="614.41809"
   height="111.33205"
   id="svg2"
   version="1.1"
   inkscape:version="0.91 r13725"
   sodipodi:docname="Pipeline_overview.svg">
  <sodipodi:namedview
     id="base"
     pagecolor="#ffffff"
     bordercolor="#666666"
     borderopacity="1.0"
     inkscape:pageopacity="0.0"
     inkscape:pageshadow="2"
     inkscape:zoom="1.4"
     inkscape:cx="308.57347"
     inkscape:cy="-125.69487"
     inkscape:document-units="px"
     inkscape:current-layer="layer1"
     showgrid="false"
     inkscape:window-width="1920"
     inkscape:window-height="1142"
     inkscape:window-x="0"
     inkscape:window-y="0"
     inkscape:window-maximized="1"
     showguides="true"
     inkscape:guide-bbox="true"
     fit-margin-top="10"
     fit-margin-left="10"
     fit-margin-right="10"
     fit-margin-bottom="10"
     inkscape:showpageshadow="false"
     showborder="true" />
  <defs
     id="defs4">
    <marker
       style="overflow:visible"
       id="TriangleOutS"
       refX="0"
       refY="0"
       orient="auto"
       inkscape:stockid="TriangleOutS">
      <path
         transform="scale(0.2,0.2)"
         style="fill-rule:evenodd;stroke:#000000;stroke-width:1pt"
         d="m 5.77,0 -8.65,5 0,-10 8.65,5 z"
         id="path4305"
         inkscape:connector-curvature="0" />
    </marker>
    <marker
       style="overflow:visible"
       id="Arrow2Send"
       refX="0"
       refY="0"
       orient="auto"
       inkscape:stockid="Arrow2Send">
      <path
         transform="matrix(-0.3,0,0,-0.3,0.69,0)"
         d="M 8.7185878,4.0337352 -2.2072895,0.01601326 8.7185884,-4.0017078 c -1.7454984,2.3720609 -1.7354408,5.6174519 -6e-7,8.035443 z"
         style="fill-rule:evenodd;stroke-width:0.625;stroke-linejoin:round"
         id="path4190"
         inkscape:connector-curvature="0" />
    </marker>
    <marker
       style="overflow:visible"
       id="Arrow1Lend"
       refX="0"
       refY="0"
       orient="auto"
       inkscape:stockid="Arrow1Lend">
      <path
         transform="matrix(-0.8,0,0,-0.8,-10,0)"
         style="fill-rule:evenodd;stroke:#000000;stroke-width:1pt"
         d="M 0,0 5,-5 -12.5,0 5,5 0,0 Z"
         id="path4160"
         inkscape:connector-curvature="0" />
    </marker>
    <filter
       inkscape:label="Drop Shadow"
       id="filter3777"
       style="color-interpolation-filters:sRGB">
      <feFlood
         result="flood"
         flood-color="rgb(0,0,0)"
         flood-opacity="0.5"
         id="feFlood3779" />
      <feComposite
         result="composite1"
         operator="in"
         in="flood"
         in2="SourceGraphic"
         id="feComposite3781" />
      <feGaussianBlur
         result="blur"
         stdDeviation="2"
         id="feGaussianBlur3783" />
      <feOffset
         result="offset"
         dy="4"
         dx="4"
         id="feOffset3785" />
      <feComposite
         result="composite2"
         operator="over"
         in="SourceGraphic"
         in2="offset"
         id="feComposite3787" />
    </filter>
    <filter
       inkscape:label="Drop Shadow"
       id="filter3789"
       style="color-interpolation-filters:sRGB">
      <feFlood
         result="flood"
         flood-color="rgb(0,0,0)"
         flood-opacity="0.5"
         id="feFlood3791" />
      <feComposite
         result="composite1"
         operator="in"
         in="flood"
         in2="SourceGraphic"
         id="feComposite3793" />
      <feGaussianBlur
         result="blur"
         stdDeviation="2"
         id="feGaussianBlur3795" />
      <feOffset
         result="offset"
         dy="4"
         dx="4"
         id="feOffset3797" />
      <feComposite
         result="composite2"
         operator="over"
         in="SourceGraphic"
         in2="offset"
         id="feComposite3799" />
    </filter>
    <filter
       inkscape:label="Drop Shadow"
       id="filter3777-3"
       style="color-interpolation-filters:sRGB">
      <feFlood
         result="flood"
         flood-color="rgb(0,0,0)"
         flood-opacity="0.5"
         id="feFlood3779-8" />
      <feComposite
         result="composite1"
         operator="in"
         in="flood"
         in2="SourceGraphic"
         id="feComposite3781-6" />
      <feGaussianBlur
         result="blur"
         stdDeviation="2"
         id="feGaussianBlur3783-9" />
      <feOffset
         result="offset"
         dy="4"
         dx="4"
         id="feOffset3785-4" />
      <feComposite
         result="fbSourceGraphic"
         operator="over"
         in="SourceGraphic"
         in2="offset"
         id="feComposite3787-3" />
      <feColorMatrix
         id="feColorMatrix3881"
         values="0 0 0 -1 0 0 0 0 -1 0 0 0 0 -1 0 0 0 0 1 0"
         in="fbSourceGraphic"
         result="fbSourceGraphicAlpha" />
      <feFlood
         in="fbSourceGraphic"
         result="flood"
         flood-color="rgb(0,0,0)"
         flood-opacity="0.5"
         id="feFlood3883" />
      <feComposite
         result="composite1"
         operator="in"
         in="flood"
         in2="fbSourceGraphic"
         id="feComposite3885" />
      <feGaussianBlur
         result="blur"
         stdDeviation="2"
         id="feGaussianBlur3887" />
      <feOffset
         result="offset"
         dy="4"
         dx="4"
         id="feOffset3889" />
      <feComposite
         result="composite2"
         operator="over"
         in="fbSourceGraphic"
         in2="offset"
         id="feComposite3891" />
    </filter>
    <marker
       style="overflow:visible"
       id="TriangleOutSd"
       refX="0"
       refY="0"
       orient="auto"
       inkscape:stockid="TriangleOutSd">
      <path
         transform="scale(0.2,0.2)"
         style="fill:#afafaf;fill-rule:evenodd;stroke:#afafaf;stroke-width:1pt"
         d="m 5.77,0 -8.65,5 0,-10 8.65,5 z"
         id="path5012"
         inkscape:connector-curvature="0" />
    </marker>
    <filter
       id="filter5169"
       inkscape:label="Drop Shadow"
       style="color-interpolation-filters:sRGB">
      <feFlood
         id="feFlood5171"
         flood-opacity="0.5"
         flood-color="rgb(0,0,0)"
         result="flood" />
      <feComposite
         id="feComposite5173"
         in2="SourceGraphic"
         in="flood"
         operator="in"
         result="composite1" />
      <feGaussianBlur
         id="feGaussianBlur5175"
         stdDeviation="2"
         result="blur" />
      <feOffset
         id="feOffset5177"
         dx="4"
         dy="4"
         result="offset" />
      <feComposite
         id="feComposite5179"
         in2="offset"
         in="SourceGraphic"
         operator="over"
         result="composite2" />
    </filter>
    <filter
       id="filter5181"
       inkscape:label="Drop Shadow"
       style="color-interpolation-filters:sRGB">
      <feFlood
         id="feFlood5183"
         flood-opacity="0.5"
         flood-color="rgb(0,0,0)"
         result="flood" />
      <feComposite
         id="feComposite5185"
         in2="SourceGraphic"
         in="flood"
         operator="in"
         result="composite1" />
      <feGaussianBlur
         id="feGaussianBlur5187"
         stdDeviation="2"
         result="blur" />
      <feOffset
         id="feOffset5189"
         dx="4"
         dy="4"
         result="offset" />
      <feComposite
         id="feComposite5191"
         in2="offset"
         in="SourceGraphic"
         operator="over"
         result="composite2" />
    </filter>
    <marker
       style="overflow:visible"
       id="TriangleOutSd-3"
       refX="0"
       refY="0"
       orient="auto"
       inkscape:stockid="TriangleOutSd">
      <path
         transform="scale(0.2,0.2)"
         style="fill:#afafaf;fill-rule:evenodd;stroke:#afafaf;stroke-width:1pt"
         d="m 5.77,0 -8.65,5 0,-10 8.65,5 z"
         id="path5012-6"
         inkscape:connector-curvature="0" />
    </marker>
  </defs>
  <metadata
     id="metadata7">
    <rdf:RDF>
      <cc:Work
         rdf:about="">
        <dc:format>image/svg+xml</dc:format>
        <dc:type
           rdf:resource="http://purl.org/dc/dcmitype/StillImage" />
        <dc:title />
      </cc:Work>
    </rdf:RDF>
  </metadata>
  <g
     id="layer1"
     inkscape:groupmode="layer"
     inkscape:label="Layer 1"
     transform="translate(-21.594544,-331.03015)"
     style="display:inline">
    <rect
       y="361.64792"
       x="127.14286"
       height="70.714279"
       width="407.85721"
       id="rect2985-9"
       style="color:#000000;display:inline;overflow:visible;visibility:visible;fill:#f3eebf;fill-opacity:1;fill-rule:evenodd;stroke:none;stroke-width:3;marker:none;enable-background:accumulate" />
    <path
       inkscape:connector-curvature="0"
       id="path4151"
       d="m 83.650876,398.54839 41.020794,0"
       style="fill:none;stroke:#afafaf;stroke-width:10;stroke-linecap:butt;stroke-linejoin:miter;stroke-miterlimit:4;stroke-dasharray:none;stroke-opacity:1;marker-end:url(#TriangleOutSd)"
       sodipodi:nodetypes="cc" />
    <text
       sodipodi:linespacing="125%"
       id="text3755-9"
       y="353.1864"
       x="126.44589"
       style="font-style:normal;font-weight:normal;font-size:40px;line-height:125%;font-family:'Bitstream Vera Sans';letter-spacing:0px;word-spacing:0px;fill:#000000;fill-opacity:1;stroke:none"
       xml:space="preserve"><tspan
         style="font-style:normal;font-variant:normal;font-weight:normal;font-stretch:normal;font-size:16px;line-height:125%;font-family:'DejaVu Sans';-inkscape-font-specification:'DejaVu Sans';text-align:start;writing-mode:lr-tb;text-anchor:start"
         y="353.1864"
         x="126.44589"
         id="tspan3757-0"
         sodipodi:role="line">Pipeline object:</tspan></text>
    <path
       sodipodi:nodetypes="cc"
       style="fill:none;stroke:#afafaf;stroke-width:10;stroke-linecap:butt;stroke-linejoin:miter;stroke-miterlimit:4;stroke-dasharray:none;stroke-opacity:1;marker-end:url(#TriangleOutSd)"
       d="m 237.93659,398.54839 41.02079,0"
       id="path5955"
       inkscape:connector-curvature="0" />
    <rect
       y="377.48126"
       x="139.88095"
       height="41.190479"
       width="104.5238"
       id="rect2985-9-0"
       style="color:#000000;display:inline;overflow:visible;visibility:visible;fill:#c0bff3;fill-opacity:1;fill-rule:evenodd;stroke:none;stroke-width:3;marker:none;enable-background:accumulate" />
    <text
       sodipodi:linespacing="125%"
       id="text3755-9-2"
       y="403.1864"
       x="150.01732"
       style="font-style:normal;font-weight:normal;font-size:40px;line-height:125%;font-family:'Bitstream Vera Sans';letter-spacing:0px;word-spacing:0px;fill:#000000;fill-opacity:1;stroke:none"
       xml:space="preserve"><tspan
         style="font-style:normal;font-variant:normal;font-weight:normal;font-stretch:normal;font-size:16px;line-height:125%;font-family:'DejaVu Sans';-inkscape-font-specification:'DejaVu Sans';text-align:start;writing-mode:lr-tb;text-anchor:start"
         y="403.1864"
         x="150.01732"
         id="tspan3757-0-3"
         sodipodi:role="line">FileSource</tspan></text>
    <path
       inkscape:connector-curvature="0"
       id="path5957"
       d="m 375.79373,398.54839 41.02079,0"
       style="fill:none;stroke:#afafaf;stroke-width:10;stroke-linecap:butt;stroke-linejoin:miter;stroke-miterlimit:4;stroke-dasharray:none;stroke-opacity:1;marker-end:url(#TriangleOutSd)"
       sodipodi:nodetypes="cc" />
    <rect
       style="color:#000000;display:inline;overflow:visible;visibility:visible;fill:#adedb5;fill-opacity:1;fill-rule:evenodd;stroke:none;stroke-width:3;marker:none;enable-background:accumulate"
       id="rect3937"
       width="94.523804"
       height="41.190479"
       x="292.84579"
       y="377.48126" />
    <text
       sodipodi:linespacing="125%"
       id="text3755-9-2-7"
       y="403.90067"
       x="339.54855"
       style="font-style:normal;font-weight:normal;font-size:40px;line-height:125%;font-family:'Bitstream Vera Sans';letter-spacing:0px;word-spacing:0px;fill:#000000;fill-opacity:1;stroke:none"
       xml:space="preserve"><tspan
         id="tspan3935"
         style="font-style:normal;font-variant:normal;font-weight:normal;font-stretch:normal;font-size:16px;line-height:125%;font-family:'DejaVu Sans';-inkscape-font-specification:'DejaVu Sans';text-align:center;writing-mode:lr-tb;text-anchor:middle"
         y="403.90067"
         x="339.54855"
         sodipodi:role="line">Modifier #1</tspan></text>
    <path
       id="path2667"
       style="fill:none;stroke:#000000;stroke-width:0.43114403;stroke-linecap:butt;stroke-linejoin:miter;stroke-miterlimit:10;stroke-dasharray:none;stroke-opacity:1"
       d="m 31.810116,427.4602 51.736909,0 0,-51.7373 -10.347457,-10.34754 -41.389452,0 0,62.08484 z"
       inkscape:connector-curvature="0" />
    <text
       xml:space="preserve"
       style="font-style:normal;font-weight:normal;font-size:40px;line-height:125%;font-family:'Bitstream Vera Sans';letter-spacing:0px;word-spacing:0px;fill:#000000;fill-opacity:1;stroke:none"
       x="36.099258"
       y="408.15588"
       id="text4119"
       sodipodi:linespacing="125%"><tspan
         sodipodi:role="line"
         id="tspan4121"
         x="36.099258"
         y="408.15588"
         style="font-style:normal;font-variant:normal;font-weight:normal;font-stretch:normal;font-size:10px;line-height:125%;font-family:'DejaVu Sans';-inkscape-font-specification:'DejaVu Sans';text-align:start;writing-mode:lr-tb;text-anchor:start">External </tspan><tspan
         sodipodi:role="line"
         x="36.099258"
         y="420.65588"
         style="font-style:normal;font-variant:normal;font-weight:normal;font-stretch:normal;font-size:10px;line-height:125%;font-family:'DejaVu Sans';-inkscape-font-specification:'DejaVu Sans';text-align:start;writing-mode:lr-tb;text-anchor:start"
         id="tspan5217">data file</tspan></text>
    <text
       sodipodi:linespacing="125%"
       id="text5205"
       y="373.47528"
       x="36.594559"
       style="font-style:normal;font-weight:normal;font-size:29.20380783px;line-height:125%;font-family:'Bitstream Vera Sans';letter-spacing:0px;word-spacing:0px;fill:#000000;fill-opacity:1;stroke:none"
       xml:space="preserve"><tspan
         style="font-style:normal;font-variant:normal;font-weight:normal;font-stretch:normal;font-size:7.30095196px;line-height:125%;font-family:'DejaVu Sans';-inkscape-font-specification:'DejaVu Sans';text-align:start;writing-mode:lr-tb;text-anchor:start"
         y="373.47528"
         x="36.594559"
         id="tspan5207"
         sodipodi:role="line">.......</tspan></text>
    <text
       xml:space="preserve"
       style="font-style:normal;font-weight:normal;font-size:29.20380783px;line-height:125%;font-family:'Bitstream Vera Sans';letter-spacing:0px;word-spacing:0px;fill:#000000;fill-opacity:1;stroke:none"
       x="36.594559"
       y="379.92847"
       id="text5209"
       sodipodi:linespacing="125%"><tspan
         sodipodi:role="line"
         id="tspan5211"
         x="36.594559"
         y="379.92847"
         style="font-style:normal;font-variant:normal;font-weight:normal;font-stretch:normal;font-size:7.30095196px;line-height:125%;font-family:'DejaVu Sans';-inkscape-font-specification:'DejaVu Sans';text-align:start;writing-mode:lr-tb;text-anchor:start">.......</tspan></text>
    <text
       sodipodi:linespacing="125%"
       id="text5213"
       y="386.56604"
       x="36.594559"
       style="font-style:normal;font-weight:normal;font-size:29.20380783px;line-height:125%;font-family:'Bitstream Vera Sans';letter-spacing:0px;word-spacing:0px;fill:#000000;fill-opacity:1;stroke:none"
       xml:space="preserve"><tspan
         style="font-style:normal;font-variant:normal;font-weight:normal;font-stretch:normal;font-size:7.30095196px;line-height:125%;font-family:'DejaVu Sans';-inkscape-font-specification:'DejaVu Sans';text-align:start;writing-mode:lr-tb;text-anchor:start"
         y="386.56604"
         x="36.594559"
         id="tspan5215"
         sodipodi:role="line">.......</tspan></text>
    <rect
       style="color:#000000;display:inline;overflow:visible;visibility:visible;fill:#f3eebf;fill-opacity:0.62857145;stroke:#000000;stroke-width:1.09831583;stroke-miterlimit:4;stroke-dasharray:none;stroke-dashoffset:0;stroke-opacity:1;marker:none;enable-background:accumulate"
       id="rect4428"
       width="58.49704"
       height="39.44944"
       x="566.96643"
       y="379.42325" />
    <text
       xml:space="preserve"
       style="font-style:normal;font-weight:normal;font-size:40px;line-height:125%;font-family:'Bitstream Vera Sans';letter-spacing:0px;word-spacing:0px;fill:#000000;fill-opacity:1;stroke:none"
       x="594.44104"
       y="397.18643"
       id="text4430"
       sodipodi:linespacing="125%"><tspan
         sodipodi:role="line"
         x="594.44104"
         y="397.18643"
         style="font-style:normal;font-variant:normal;font-weight:normal;font-stretch:normal;font-size:11px;line-height:125%;font-family:'DejaVu Sans';-inkscape-font-specification:'DejaVu Sans';text-align:center;writing-mode:lr-tb;text-anchor:middle;fill:#000000;fill-opacity:1"
         id="tspan4434">output</tspan><tspan
         sodipodi:role="line"
         x="594.44104"
         y="410.93643"
         style="font-style:normal;font-variant:normal;font-weight:normal;font-stretch:normal;font-size:11px;line-height:125%;font-family:'DejaVu Sans';-inkscape-font-specification:'DejaVu Sans';text-align:center;writing-mode:lr-tb;text-anchor:middle;fill:#000000;fill-opacity:1"
         id="tspan5953">data</tspan></text>
    <path
       sodipodi:nodetypes="cc"
       style="fill:none;stroke:#afafaf;stroke-width:10;stroke-linecap:butt;stroke-linejoin:miter;stroke-miterlimit:4;stroke-dasharray:none;stroke-opacity:1;marker-end:url(#TriangleOutSd)"
       d="m 512.2223,398.54839 41.02079,0"
       id="path5965"
       inkscape:connector-curvature="0" />
    <rect
       y="377.48126"
       x="430.70294"
       height="41.190479"
       width="95.238091"
       id="rect5959"
       style="color:#000000;display:inline;overflow:visible;visibility:visible;fill:#adedb5;fill-opacity:1;fill-rule:evenodd;stroke:none;stroke-width:3;marker:none;enable-background:accumulate" />
    <text
       xml:space="preserve"
       style="font-style:normal;font-weight:normal;font-size:40px;line-height:125%;font-family:'Bitstream Vera Sans';letter-spacing:0px;word-spacing:0px;fill:#000000;fill-opacity:1;stroke:none"
       x="477.40573"
       y="403.90067"
       id="text5961"
       sodipodi:linespacing="125%"><tspan
         sodipodi:role="line"
         x="477.40573"
         y="403.90067"
         style="font-style:normal;font-variant:normal;font-weight:normal;font-stretch:normal;font-size:16px;line-height:125%;font-family:'DejaVu Sans';-inkscape-font-specification:'DejaVu Sans';text-align:center;writing-mode:lr-tb;text-anchor:middle"
         id="tspan5963">Modifier #2</tspan></text>
  </g>
</svg>
